{
    "basename": "asr-array_bound_1-b0c2255",
    "cmd": "lfortran --show-asr --no-color {infile} -o {outfile}",
    "infile": "tests/../integration_tests/array_bound_1.f90",
    "infile_hash": "38d2c1d99ad714fdaa387541310a78f8d3c4d7e19e93ed67a2dcf677",
    "outfile": null,
    "outfile_hash": null,
    "stdout": "asr-array_bound_1-b0c2255.stdout",
    "stdout_hash": "ececad7ba43dd0f55496216467e727681b1597543048584ec61b73b3",
    "stderr": null,
    "stderr_hash": null,
    "returncode": 0
}