{
    "basename": "asr-subroutine7-58db221",
    "cmd": "lfortran --show-asr --no-color {infile} -o {outfile}",
    "infile": "tests/subroutine7.f90",
    "infile_hash": "3a15750c9d608f1988e0dd13f8d956be28a72297be5ef3137777cf2f",
    "outfile": null,
    "outfile_hash": null,
    "stdout": "asr-subroutine7-58db221.stdout",
    "stdout_hash": "ad7d18382401498775c5d43a643dae42f38ff6381e55f278fddb2026",
    "stderr": null,
    "stderr_hash": null,
    "returncode": 0
}