{
    "basename": "asr-class_01-704dee8",
    "cmd": "lfortran --show-asr --no-color {infile} -o {outfile}",
    "infile": "tests/../integration_tests/class_01.f90",
    "infile_hash": "d56b80167c24a798a3f70abbc77b31570b560e826ce6b96ab9476bab",
    "outfile": null,
    "outfile_hash": null,
    "stdout": "asr-class_01-704dee8.stdout",
    "stdout_hash": "d488104c942f7b29484492bc0492f9b4ce54994581ec2d58f58b9073",
    "stderr": null,
    "stderr_hash": null,
    "returncode": 0
}