{
    "basename": "asr-matrix_01_transpose-fb3276a",
    "cmd": "lfortran --show-asr --no-color {infile} -o {outfile}",
    "infile": "tests/../integration_tests/matrix_01_transpose.f90",
    "infile_hash": "91d2a520a2f1dce704f9ac55d8601c82d36fa384b65fb4eb826dd807",
    "outfile": null,
    "outfile_hash": null,
    "stdout": "asr-matrix_01_transpose-fb3276a.stdout",
    "stdout_hash": "89958339e2ad586dce35e2f2710bc3095768d0fba4c9b07a4ed448f9",
    "stderr": null,
    "stderr_hash": null,
    "returncode": 0
}