{
    "basename": "asr-functions_04-ea50b75",
    "cmd": "lfortran --show-asr --no-color {infile} -o {outfile}",
    "infile": "tests/../integration_tests/functions_04.f90",
    "infile_hash": "237775308ca559439958719781b889f95d15c69eb4126ff69abe6fb2",
    "outfile": null,
    "outfile_hash": null,
    "stdout": "asr-functions_04-ea50b75.stdout",
    "stdout_hash": "dbef2a178ebf7868c50e2bff9565fd1e4572cd7941172a6bc91f5ae9",
    "stderr": null,
    "stderr_hash": null,
    "returncode": 0
}