{
    "basename": "asr-operator_overloading_03-f7a6efe",
    "cmd": "lfortran --show-asr --no-color {infile} -o {outfile}",
    "infile": "tests/../integration_tests/operator_overloading_03.f90",
    "infile_hash": "3340e64f6a134b16739a00f54087bb1816f1e6876ec32e6170275e19",
    "outfile": null,
    "outfile_hash": null,
    "stdout": "asr-operator_overloading_03-f7a6efe.stdout",
    "stdout_hash": "15093107a9ae23df83a98ff7c97134d0efc564bed87ecf9672ece7ae",
    "stderr": null,
    "stderr_hash": null,
    "returncode": 0
}