{
    "basename": "asr-intrinsics_31-9b91cfb",
    "cmd": "lfortran --show-asr --no-color {infile} -o {outfile}",
    "infile": "tests/../integration_tests/intrinsics_31.f90",
    "infile_hash": "f9db5457e09683e2b0afde876cbd0ddf85412c67117277ba413679af",
    "outfile": null,
    "outfile_hash": null,
    "stdout": "asr-intrinsics_31-9b91cfb.stdout",
    "stdout_hash": "79c6ff30419f8fe9f9670c3e10b78ea0b9b666a1b00f748a928c651f",
    "stderr": null,
    "stderr_hash": null,
    "returncode": 0
}