{
    "basename": "cpp-types_04-513a7e4",
    "cmd": "lfortran --no-color --show-cpp {infile}",
    "infile": "tests/../integration_tests/types_04.f90",
    "infile_hash": "da21466af87608d5d323360a130e0a5542261d98fabaeebb5adc16d3",
    "outfile": null,
    "outfile_hash": null,
    "stdout": "cpp-types_04-513a7e4.stdout",
    "stdout_hash": "aea49cf2fc0e7add351876aeb2a41a061bb826cf3119eb7a52f3a0eb",
    "stderr": null,
    "stderr_hash": null,
    "returncode": 0
}