{
    "basename": "llvm-arrays_04_func-2aa342e",
    "cmd": "lfortran --no-color --show-llvm {infile} -o {outfile}",
    "infile": "tests/../integration_tests/arrays_04_func.f90",
    "infile_hash": "50eb699e803e7dace8da286ee49cdb7381ebe3141bff17ca374f1f02",
    "outfile": null,
    "outfile_hash": null,
    "stdout": "llvm-arrays_04_func-2aa342e.stdout",
    "stdout_hash": "f3d6ae587a2e94692f1547eba609bc0890cecb124de852c14c664c29",
    "stderr": null,
    "stderr_hash": null,
    "returncode": 0
}