; ModuleID = 'LFortran'
source_filename = "LFortran"

%array = type { float*, i32, %dimension_descriptor*, i1, i32 }
%dimension_descriptor = type { i32, i32, i32, i32 }

@0 = private unnamed_addr constant [12 x i8] c"ERROR STOP\0A\00", align 1

define void @asquare(%array* %a, %array* %b, %array* %c, %array* %d) {
.entry:
  %"1_t" = alloca i32, align 4
  %"1_v" = alloca i32, align 4
  %"2_t" = alloca i32, align 4
  %"2_v" = alloca i32, align 4
  %"3_t" = alloca i32, align 4
  %"3_v" = alloca i32, align 4
  %"~0_bin_op_res" = alloca %array, align 8
  %0 = load %array, %array* %a, align 8
  %1 = getelementptr %array, %array* %a, i32 0, i32 2
  %2 = load %dimension_descriptor*, %dimension_descriptor** %1, align 8
  %3 = getelementptr inbounds %dimension_descriptor, %dimension_descriptor* %2, i32 0
  %4 = getelementptr %dimension_descriptor, %dimension_descriptor* %3, i32 0, i32 1
  %5 = load i32, i32* %4, align 4
  %6 = load %array, %array* %a, align 8
  %7 = getelementptr %array, %array* %a, i32 0, i32 2
  %8 = load %dimension_descriptor*, %dimension_descriptor** %7, align 8
  %9 = getelementptr inbounds %dimension_descriptor, %dimension_descriptor* %8, i32 0
  %10 = getelementptr %dimension_descriptor, %dimension_descriptor* %9, i32 0, i32 2
  %11 = load i32, i32* %10, align 4
  %12 = load %array, %array* %a, align 8
  %13 = getelementptr %array, %array* %a, i32 0, i32 2
  %14 = load %dimension_descriptor*, %dimension_descriptor** %13, align 8
  %15 = getelementptr inbounds %dimension_descriptor, %dimension_descriptor* %14, i32 1
  %16 = getelementptr %dimension_descriptor, %dimension_descriptor* %15, i32 0, i32 1
  %17 = load i32, i32* %16, align 4
  %18 = load %array, %array* %a, align 8
  %19 = getelementptr %array, %array* %a, i32 0, i32 2
  %20 = load %dimension_descriptor*, %dimension_descriptor** %19, align 8
  %21 = getelementptr inbounds %dimension_descriptor, %dimension_descriptor* %20, i32 1
  %22 = getelementptr %dimension_descriptor, %dimension_descriptor* %21, i32 0, i32 2
  %23 = load i32, i32* %22, align 4
  %24 = load %array, %array* %a, align 8
  %25 = getelementptr %array, %array* %a, i32 0, i32 2
  %26 = load %dimension_descriptor*, %dimension_descriptor** %25, align 8
  %27 = getelementptr inbounds %dimension_descriptor, %dimension_descriptor* %26, i32 2
  %28 = getelementptr %dimension_descriptor, %dimension_descriptor* %27, i32 0, i32 1
  %29 = load i32, i32* %28, align 4
  %30 = load %array, %array* %a, align 8
  %31 = getelementptr %array, %array* %a, i32 0, i32 2
  %32 = load %dimension_descriptor*, %dimension_descriptor** %31, align 8
  %33 = getelementptr inbounds %dimension_descriptor, %dimension_descriptor* %32, i32 2
  %34 = getelementptr %dimension_descriptor, %dimension_descriptor* %33, i32 0, i32 2
  %35 = load i32, i32* %34, align 4
  %36 = getelementptr %array, %array* %"~0_bin_op_res", i32 0, i32 1
  store i32 0, i32* %36, align 4
  %37 = getelementptr %array, %array* %"~0_bin_op_res", i32 0, i32 2
  %38 = alloca i32, align 4
  store i32 3, i32* %38, align 4
  %39 = load i32, i32* %38, align 4
  %40 = alloca %dimension_descriptor, i32 %39, align 8
  %41 = getelementptr %array, %array* %"~0_bin_op_res", i32 0, i32 4
  store i32 3, i32* %41, align 4
  store %dimension_descriptor* %40, %dimension_descriptor** %37, align 8
  %42 = load %dimension_descriptor*, %dimension_descriptor** %37, align 8
  %43 = getelementptr inbounds %dimension_descriptor, %dimension_descriptor* %42, i32 0
  %44 = getelementptr %dimension_descriptor, %dimension_descriptor* %43, i32 0, i32 0
  %45 = getelementptr %dimension_descriptor, %dimension_descriptor* %43, i32 0, i32 1
  %46 = getelementptr %dimension_descriptor, %dimension_descriptor* %43, i32 0, i32 2
  %47 = getelementptr %dimension_descriptor, %dimension_descriptor* %43, i32 0, i32 3
  store i32 1, i32* %44, align 4
  store i32 %5, i32* %45, align 4
  store i32 %11, i32* %46, align 4
  %48 = load i32, i32* %46, align 4
  %49 = load i32, i32* %45, align 4
  %50 = sub i32 %48, %49
  %51 = add i32 %50, 1
  store i32 %51, i32* %47, align 4
  %52 = getelementptr inbounds %dimension_descriptor, %dimension_descriptor* %42, i32 1
  %53 = getelementptr %dimension_descriptor, %dimension_descriptor* %52, i32 0, i32 0
  %54 = getelementptr %dimension_descriptor, %dimension_descriptor* %52, i32 0, i32 1
  %55 = getelementptr %dimension_descriptor, %dimension_descriptor* %52, i32 0, i32 2
  %56 = getelementptr %dimension_descriptor, %dimension_descriptor* %52, i32 0, i32 3
  store i32 1, i32* %53, align 4
  store i32 %17, i32* %54, align 4
  store i32 %23, i32* %55, align 4
  %57 = load i32, i32* %55, align 4
  %58 = load i32, i32* %54, align 4
  %59 = sub i32 %57, %58
  %60 = add i32 %59, 1
  store i32 %60, i32* %56, align 4
  %61 = getelementptr inbounds %dimension_descriptor, %dimension_descriptor* %42, i32 2
  %62 = getelementptr %dimension_descriptor, %dimension_descriptor* %61, i32 0, i32 0
  %63 = getelementptr %dimension_descriptor, %dimension_descriptor* %61, i32 0, i32 1
  %64 = getelementptr %dimension_descriptor, %dimension_descriptor* %61, i32 0, i32 2
  %65 = getelementptr %dimension_descriptor, %dimension_descriptor* %61, i32 0, i32 3
  store i32 1, i32* %62, align 4
  store i32 %29, i32* %63, align 4
  store i32 %35, i32* %64, align 4
  %66 = load i32, i32* %64, align 4
  %67 = load i32, i32* %63, align 4
  %68 = sub i32 %66, %67
  %69 = add i32 %68, 1
  store i32 %69, i32* %65, align 4
  %70 = alloca i32, align 4
  %71 = sub i32 %11, %5
  %72 = add i32 %71, 1
  %73 = mul i32 1, %72
  %74 = sub i32 %23, %17
  %75 = add i32 %74, 1
  %76 = mul i32 %73, %75
  %77 = sub i32 %35, %29
  %78 = add i32 %77, 1
  %79 = mul i32 %76, %78
  store i32 %79, i32* %70, align 4
  %80 = getelementptr %array, %array* %"~0_bin_op_res", i32 0, i32 0
  %81 = load i32, i32* %70, align 4
  %82 = alloca float, i32 %81, align 4
  store float* %82, float** %80, align 8
  store i32 1, i32* %"1_v", align 4
  %83 = load %array, %array* %"~0_bin_op_res", align 8
  %84 = getelementptr %array, %array* %"~0_bin_op_res", i32 0, i32 2
  %85 = load %dimension_descriptor*, %dimension_descriptor** %84, align 8
  %86 = getelementptr inbounds %dimension_descriptor, %dimension_descriptor* %85, i32 0
  %87 = getelementptr %dimension_descriptor, %dimension_descriptor* %86, i32 0, i32 1
  %88 = load i32, i32* %87, align 4
  %89 = sub i32 %88, 1
  store i32 %89, i32* %"1_t", align 4
  br label %loop.head

loop.head:                                        ; preds = %loop.end5, %.entry
  %90 = load i32, i32* %"1_t", align 4
  %91 = add i32 %90, 1
  %92 = load %array, %array* %"~0_bin_op_res", align 8
  %93 = getelementptr %array, %array* %"~0_bin_op_res", i32 0, i32 2
  %94 = load %dimension_descriptor*, %dimension_descriptor** %93, align 8
  %95 = getelementptr inbounds %dimension_descriptor, %dimension_descriptor* %94, i32 0
  %96 = getelementptr %dimension_descriptor, %dimension_descriptor* %95, i32 0, i32 2
  %97 = load i32, i32* %96, align 4
  %98 = icmp sle i32 %91, %97
  br i1 %98, label %loop.body, label %loop.end6

loop.body:                                        ; preds = %loop.head
  %99 = load i32, i32* %"1_t", align 4
  %100 = add i32 %99, 1
  store i32 %100, i32* %"1_t", align 4
  store i32 1, i32* %"2_v", align 4
  %101 = load %array, %array* %"~0_bin_op_res", align 8
  %102 = getelementptr %array, %array* %"~0_bin_op_res", i32 0, i32 2
  %103 = load %dimension_descriptor*, %dimension_descriptor** %102, align 8
  %104 = getelementptr inbounds %dimension_descriptor, %dimension_descriptor* %103, i32 1
  %105 = getelementptr %dimension_descriptor, %dimension_descriptor* %104, i32 0, i32 1
  %106 = load i32, i32* %105, align 4
  %107 = sub i32 %106, 1
  store i32 %107, i32* %"2_t", align 4
  br label %loop.head1

loop.head1:                                       ; preds = %loop.end, %loop.body
  %108 = load i32, i32* %"2_t", align 4
  %109 = add i32 %108, 1
  %110 = load %array, %array* %"~0_bin_op_res", align 8
  %111 = getelementptr %array, %array* %"~0_bin_op_res", i32 0, i32 2
  %112 = load %dimension_descriptor*, %dimension_descriptor** %111, align 8
  %113 = getelementptr inbounds %dimension_descriptor, %dimension_descriptor* %112, i32 1
  %114 = getelementptr %dimension_descriptor, %dimension_descriptor* %113, i32 0, i32 2
  %115 = load i32, i32* %114, align 4
  %116 = icmp sle i32 %109, %115
  br i1 %116, label %loop.body2, label %loop.end5

loop.body2:                                       ; preds = %loop.head1
  %117 = load i32, i32* %"2_t", align 4
  %118 = add i32 %117, 1
  store i32 %118, i32* %"2_t", align 4
  store i32 1, i32* %"3_v", align 4
  %119 = load %array, %array* %"~0_bin_op_res", align 8
  %120 = getelementptr %array, %array* %"~0_bin_op_res", i32 0, i32 2
  %121 = load %dimension_descriptor*, %dimension_descriptor** %120, align 8
  %122 = getelementptr inbounds %dimension_descriptor, %dimension_descriptor* %121, i32 2
  %123 = getelementptr %dimension_descriptor, %dimension_descriptor* %122, i32 0, i32 1
  %124 = load i32, i32* %123, align 4
  %125 = sub i32 %124, 1
  store i32 %125, i32* %"3_t", align 4
  br label %loop.head3

loop.head3:                                       ; preds = %loop.body4, %loop.body2
  %126 = load i32, i32* %"3_t", align 4
  %127 = add i32 %126, 1
  %128 = load %array, %array* %"~0_bin_op_res", align 8
  %129 = getelementptr %array, %array* %"~0_bin_op_res", i32 0, i32 2
  %130 = load %dimension_descriptor*, %dimension_descriptor** %129, align 8
  %131 = getelementptr inbounds %dimension_descriptor, %dimension_descriptor* %130, i32 2
  %132 = getelementptr %dimension_descriptor, %dimension_descriptor* %131, i32 0, i32 2
  %133 = load i32, i32* %132, align 4
  %134 = icmp sle i32 %127, %133
  br i1 %134, label %loop.body4, label %loop.end

loop.body4:                                       ; preds = %loop.head3
  %135 = load i32, i32* %"3_t", align 4
  %136 = add i32 %135, 1
  store i32 %136, i32* %"3_t", align 4
  %137 = load i32, i32* %"1_t", align 4
  %138 = load i32, i32* %"2_t", align 4
  %139 = load i32, i32* %"3_t", align 4
  %140 = getelementptr %array, %array* %"~0_bin_op_res", i32 0, i32 2
  %141 = load %dimension_descriptor*, %dimension_descriptor** %140, align 8
  %142 = getelementptr inbounds %dimension_descriptor, %dimension_descriptor* %141, i32 0
  %143 = getelementptr %dimension_descriptor, %dimension_descriptor* %142, i32 0, i32 1
  %144 = load i32, i32* %143, align 4
  %145 = sub i32 %137, %144
  %146 = mul i32 1, %145
  %147 = add i32 0, %146
  %148 = getelementptr %dimension_descriptor, %dimension_descriptor* %142, i32 0, i32 3
  %149 = load i32, i32* %148, align 4
  %150 = mul i32 1, %149
  %151 = getelementptr inbounds %dimension_descriptor, %dimension_descriptor* %141, i32 1
  %152 = getelementptr %dimension_descriptor, %dimension_descriptor* %151, i32 0, i32 1
  %153 = load i32, i32* %152, align 4
  %154 = sub i32 %138, %153
  %155 = mul i32 %150, %154
  %156 = add i32 %147, %155
  %157 = getelementptr %dimension_descriptor, %dimension_descriptor* %151, i32 0, i32 3
  %158 = load i32, i32* %157, align 4
  %159 = mul i32 %150, %158
  %160 = getelementptr inbounds %dimension_descriptor, %dimension_descriptor* %141, i32 2
  %161 = getelementptr %dimension_descriptor, %dimension_descriptor* %160, i32 0, i32 1
  %162 = load i32, i32* %161, align 4
  %163 = sub i32 %139, %162
  %164 = mul i32 %159, %163
  %165 = add i32 %156, %164
  %166 = getelementptr %dimension_descriptor, %dimension_descriptor* %160, i32 0, i32 3
  %167 = load i32, i32* %166, align 4
  %168 = mul i32 %159, %167
  %169 = getelementptr %array, %array* %"~0_bin_op_res", i32 0, i32 0
  %170 = load float*, float** %169, align 8
  %171 = getelementptr inbounds float, float* %170, i32 %165
  %172 = load i32, i32* %"1_v", align 4
  %173 = load i32, i32* %"2_v", align 4
  %174 = load i32, i32* %"3_v", align 4
  %175 = getelementptr %array, %array* %a, i32 0, i32 2
  %176 = load %dimension_descriptor*, %dimension_descriptor** %175, align 8
  %177 = getelementptr inbounds %dimension_descriptor, %dimension_descriptor* %176, i32 0
  %178 = getelementptr %dimension_descriptor, %dimension_descriptor* %177, i32 0, i32 1
  %179 = load i32, i32* %178, align 4
  %180 = sub i32 %172, %179
  %181 = mul i32 1, %180
  %182 = add i32 0, %181
  %183 = getelementptr %dimension_descriptor, %dimension_descriptor* %177, i32 0, i32 3
  %184 = load i32, i32* %183, align 4
  %185 = mul i32 1, %184
  %186 = getelementptr inbounds %dimension_descriptor, %dimension_descriptor* %176, i32 1
  %187 = getelementptr %dimension_descriptor, %dimension_descriptor* %186, i32 0, i32 1
  %188 = load i32, i32* %187, align 4
  %189 = sub i32 %173, %188
  %190 = mul i32 %185, %189
  %191 = add i32 %182, %190
  %192 = getelementptr %dimension_descriptor, %dimension_descriptor* %186, i32 0, i32 3
  %193 = load i32, i32* %192, align 4
  %194 = mul i32 %185, %193
  %195 = getelementptr inbounds %dimension_descriptor, %dimension_descriptor* %176, i32 2
  %196 = getelementptr %dimension_descriptor, %dimension_descriptor* %195, i32 0, i32 1
  %197 = load i32, i32* %196, align 4
  %198 = sub i32 %174, %197
  %199 = mul i32 %194, %198
  %200 = add i32 %191, %199
  %201 = getelementptr %dimension_descriptor, %dimension_descriptor* %195, i32 0, i32 3
  %202 = load i32, i32* %201, align 4
  %203 = mul i32 %194, %202
  %204 = getelementptr %array, %array* %a, i32 0, i32 0
  %205 = load float*, float** %204, align 8
  %206 = getelementptr inbounds float, float* %205, i32 %200
  %207 = load float, float* %206, align 4
  %208 = load i32, i32* %"1_v", align 4
  %209 = load i32, i32* %"2_v", align 4
  %210 = load i32, i32* %"3_v", align 4
  %211 = getelementptr %array, %array* %b, i32 0, i32 2
  %212 = load %dimension_descriptor*, %dimension_descriptor** %211, align 8
  %213 = getelementptr inbounds %dimension_descriptor, %dimension_descriptor* %212, i32 0
  %214 = getelementptr %dimension_descriptor, %dimension_descriptor* %213, i32 0, i32 1
  %215 = load i32, i32* %214, align 4
  %216 = sub i32 %208, %215
  %217 = mul i32 1, %216
  %218 = add i32 0, %217
  %219 = getelementptr %dimension_descriptor, %dimension_descriptor* %213, i32 0, i32 3
  %220 = load i32, i32* %219, align 4
  %221 = mul i32 1, %220
  %222 = getelementptr inbounds %dimension_descriptor, %dimension_descriptor* %212, i32 1
  %223 = getelementptr %dimension_descriptor, %dimension_descriptor* %222, i32 0, i32 1
  %224 = load i32, i32* %223, align 4
  %225 = sub i32 %209, %224
  %226 = mul i32 %221, %225
  %227 = add i32 %218, %226
  %228 = getelementptr %dimension_descriptor, %dimension_descriptor* %222, i32 0, i32 3
  %229 = load i32, i32* %228, align 4
  %230 = mul i32 %221, %229
  %231 = getelementptr inbounds %dimension_descriptor, %dimension_descriptor* %212, i32 2
  %232 = getelementptr %dimension_descriptor, %dimension_descriptor* %231, i32 0, i32 1
  %233 = load i32, i32* %232, align 4
  %234 = sub i32 %210, %233
  %235 = mul i32 %230, %234
  %236 = add i32 %227, %235
  %237 = getelementptr %dimension_descriptor, %dimension_descriptor* %231, i32 0, i32 3
  %238 = load i32, i32* %237, align 4
  %239 = mul i32 %230, %238
  %240 = getelementptr %array, %array* %b, i32 0, i32 0
  %241 = load float*, float** %240, align 8
  %242 = getelementptr inbounds float, float* %241, i32 %236
  %243 = load float, float* %242, align 4
  %244 = fadd float %207, %243
  store float %244, float* %171, align 4
  %245 = load i32, i32* %"3_v", align 4
  %246 = add i32 %245, 1
  store i32 %246, i32* %"3_v", align 4
  br label %loop.head3

loop.end:                                         ; preds = %loop.head3
  %247 = load i32, i32* %"2_v", align 4
  %248 = add i32 %247, 1
  store i32 %248, i32* %"2_v", align 4
  br label %loop.head1

loop.end5:                                        ; preds = %loop.head1
  %249 = load i32, i32* %"1_v", align 4
  %250 = add i32 %249, 1
  store i32 %250, i32* %"1_v", align 4
  br label %loop.head

loop.end6:                                        ; preds = %loop.head
  store i32 1, i32* %"1_v", align 4
  %251 = load %array, %array* %d, align 8
  %252 = getelementptr %array, %array* %d, i32 0, i32 2
  %253 = load %dimension_descriptor*, %dimension_descriptor** %252, align 8
  %254 = getelementptr inbounds %dimension_descriptor, %dimension_descriptor* %253, i32 0
  %255 = getelementptr %dimension_descriptor, %dimension_descriptor* %254, i32 0, i32 1
  %256 = load i32, i32* %255, align 4
  %257 = sub i32 %256, 1
  store i32 %257, i32* %"1_t", align 4
  br label %loop.head7

loop.head7:                                       ; preds = %loop.end14, %loop.end6
  %258 = load i32, i32* %"1_t", align 4
  %259 = add i32 %258, 1
  %260 = load %array, %array* %d, align 8
  %261 = getelementptr %array, %array* %d, i32 0, i32 2
  %262 = load %dimension_descriptor*, %dimension_descriptor** %261, align 8
  %263 = getelementptr inbounds %dimension_descriptor, %dimension_descriptor* %262, i32 0
  %264 = getelementptr %dimension_descriptor, %dimension_descriptor* %263, i32 0, i32 2
  %265 = load i32, i32* %264, align 4
  %266 = icmp sle i32 %259, %265
  br i1 %266, label %loop.body8, label %loop.end15

loop.body8:                                       ; preds = %loop.head7
  %267 = load i32, i32* %"1_t", align 4
  %268 = add i32 %267, 1
  store i32 %268, i32* %"1_t", align 4
  store i32 1, i32* %"2_v", align 4
  %269 = load %array, %array* %d, align 8
  %270 = getelementptr %array, %array* %d, i32 0, i32 2
  %271 = load %dimension_descriptor*, %dimension_descriptor** %270, align 8
  %272 = getelementptr inbounds %dimension_descriptor, %dimension_descriptor* %271, i32 1
  %273 = getelementptr %dimension_descriptor, %dimension_descriptor* %272, i32 0, i32 1
  %274 = load i32, i32* %273, align 4
  %275 = sub i32 %274, 1
  store i32 %275, i32* %"2_t", align 4
  br label %loop.head9

loop.head9:                                       ; preds = %loop.end13, %loop.body8
  %276 = load i32, i32* %"2_t", align 4
  %277 = add i32 %276, 1
  %278 = load %array, %array* %d, align 8
  %279 = getelementptr %array, %array* %d, i32 0, i32 2
  %280 = load %dimension_descriptor*, %dimension_descriptor** %279, align 8
  %281 = getelementptr inbounds %dimension_descriptor, %dimension_descriptor* %280, i32 1
  %282 = getelementptr %dimension_descriptor, %dimension_descriptor* %281, i32 0, i32 2
  %283 = load i32, i32* %282, align 4
  %284 = icmp sle i32 %277, %283
  br i1 %284, label %loop.body10, label %loop.end14

loop.body10:                                      ; preds = %loop.head9
  %285 = load i32, i32* %"2_t", align 4
  %286 = add i32 %285, 1
  store i32 %286, i32* %"2_t", align 4
  store i32 1, i32* %"3_v", align 4
  %287 = load %array, %array* %d, align 8
  %288 = getelementptr %array, %array* %d, i32 0, i32 2
  %289 = load %dimension_descriptor*, %dimension_descriptor** %288, align 8
  %290 = getelementptr inbounds %dimension_descriptor, %dimension_descriptor* %289, i32 2
  %291 = getelementptr %dimension_descriptor, %dimension_descriptor* %290, i32 0, i32 1
  %292 = load i32, i32* %291, align 4
  %293 = sub i32 %292, 1
  store i32 %293, i32* %"3_t", align 4
  br label %loop.head11

loop.head11:                                      ; preds = %loop.body12, %loop.body10
  %294 = load i32, i32* %"3_t", align 4
  %295 = add i32 %294, 1
  %296 = load %array, %array* %d, align 8
  %297 = getelementptr %array, %array* %d, i32 0, i32 2
  %298 = load %dimension_descriptor*, %dimension_descriptor** %297, align 8
  %299 = getelementptr inbounds %dimension_descriptor, %dimension_descriptor* %298, i32 2
  %300 = getelementptr %dimension_descriptor, %dimension_descriptor* %299, i32 0, i32 2
  %301 = load i32, i32* %300, align 4
  %302 = icmp sle i32 %295, %301
  br i1 %302, label %loop.body12, label %loop.end13

loop.body12:                                      ; preds = %loop.head11
  %303 = load i32, i32* %"3_t", align 4
  %304 = add i32 %303, 1
  store i32 %304, i32* %"3_t", align 4
  %305 = load i32, i32* %"1_t", align 4
  %306 = load i32, i32* %"2_t", align 4
  %307 = load i32, i32* %"3_t", align 4
  %308 = getelementptr %array, %array* %d, i32 0, i32 2
  %309 = load %dimension_descriptor*, %dimension_descriptor** %308, align 8
  %310 = getelementptr inbounds %dimension_descriptor, %dimension_descriptor* %309, i32 0
  %311 = getelementptr %dimension_descriptor, %dimension_descriptor* %310, i32 0, i32 1
  %312 = load i32, i32* %311, align 4
  %313 = sub i32 %305, %312
  %314 = mul i32 1, %313
  %315 = add i32 0, %314
  %316 = getelementptr %dimension_descriptor, %dimension_descriptor* %310, i32 0, i32 3
  %317 = load i32, i32* %316, align 4
  %318 = mul i32 1, %317
  %319 = getelementptr inbounds %dimension_descriptor, %dimension_descriptor* %309, i32 1
  %320 = getelementptr %dimension_descriptor, %dimension_descriptor* %319, i32 0, i32 1
  %321 = load i32, i32* %320, align 4
  %322 = sub i32 %306, %321
  %323 = mul i32 %318, %322
  %324 = add i32 %315, %323
  %325 = getelementptr %dimension_descriptor, %dimension_descriptor* %319, i32 0, i32 3
  %326 = load i32, i32* %325, align 4
  %327 = mul i32 %318, %326
  %328 = getelementptr inbounds %dimension_descriptor, %dimension_descriptor* %309, i32 2
  %329 = getelementptr %dimension_descriptor, %dimension_descriptor* %328, i32 0, i32 1
  %330 = load i32, i32* %329, align 4
  %331 = sub i32 %307, %330
  %332 = mul i32 %327, %331
  %333 = add i32 %324, %332
  %334 = getelementptr %dimension_descriptor, %dimension_descriptor* %328, i32 0, i32 3
  %335 = load i32, i32* %334, align 4
  %336 = mul i32 %327, %335
  %337 = getelementptr %array, %array* %d, i32 0, i32 0
  %338 = load float*, float** %337, align 8
  %339 = getelementptr inbounds float, float* %338, i32 %333
  %340 = load i32, i32* %"1_v", align 4
  %341 = load i32, i32* %"2_v", align 4
  %342 = load i32, i32* %"3_v", align 4
  %343 = getelementptr %array, %array* %"~0_bin_op_res", i32 0, i32 2
  %344 = load %dimension_descriptor*, %dimension_descriptor** %343, align 8
  %345 = getelementptr inbounds %dimension_descriptor, %dimension_descriptor* %344, i32 0
  %346 = getelementptr %dimension_descriptor, %dimension_descriptor* %345, i32 0, i32 1
  %347 = load i32, i32* %346, align 4
  %348 = sub i32 %340, %347
  %349 = mul i32 1, %348
  %350 = add i32 0, %349
  %351 = getelementptr %dimension_descriptor, %dimension_descriptor* %345, i32 0, i32 3
  %352 = load i32, i32* %351, align 4
  %353 = mul i32 1, %352
  %354 = getelementptr inbounds %dimension_descriptor, %dimension_descriptor* %344, i32 1
  %355 = getelementptr %dimension_descriptor, %dimension_descriptor* %354, i32 0, i32 1
  %356 = load i32, i32* %355, align 4
  %357 = sub i32 %341, %356
  %358 = mul i32 %353, %357
  %359 = add i32 %350, %358
  %360 = getelementptr %dimension_descriptor, %dimension_descriptor* %354, i32 0, i32 3
  %361 = load i32, i32* %360, align 4
  %362 = mul i32 %353, %361
  %363 = getelementptr inbounds %dimension_descriptor, %dimension_descriptor* %344, i32 2
  %364 = getelementptr %dimension_descriptor, %dimension_descriptor* %363, i32 0, i32 1
  %365 = load i32, i32* %364, align 4
  %366 = sub i32 %342, %365
  %367 = mul i32 %362, %366
  %368 = add i32 %359, %367
  %369 = getelementptr %dimension_descriptor, %dimension_descriptor* %363, i32 0, i32 3
  %370 = load i32, i32* %369, align 4
  %371 = mul i32 %362, %370
  %372 = getelementptr %array, %array* %"~0_bin_op_res", i32 0, i32 0
  %373 = load float*, float** %372, align 8
  %374 = getelementptr inbounds float, float* %373, i32 %368
  %375 = load float, float* %374, align 4
  %376 = load i32, i32* %"1_v", align 4
  %377 = load i32, i32* %"2_v", align 4
  %378 = load i32, i32* %"3_v", align 4
  %379 = getelementptr %array, %array* %c, i32 0, i32 2
  %380 = load %dimension_descriptor*, %dimension_descriptor** %379, align 8
  %381 = getelementptr inbounds %dimension_descriptor, %dimension_descriptor* %380, i32 0
  %382 = getelementptr %dimension_descriptor, %dimension_descriptor* %381, i32 0, i32 1
  %383 = load i32, i32* %382, align 4
  %384 = sub i32 %376, %383
  %385 = mul i32 1, %384
  %386 = add i32 0, %385
  %387 = getelementptr %dimension_descriptor, %dimension_descriptor* %381, i32 0, i32 3
  %388 = load i32, i32* %387, align 4
  %389 = mul i32 1, %388
  %390 = getelementptr inbounds %dimension_descriptor, %dimension_descriptor* %380, i32 1
  %391 = getelementptr %dimension_descriptor, %dimension_descriptor* %390, i32 0, i32 1
  %392 = load i32, i32* %391, align 4
  %393 = sub i32 %377, %392
  %394 = mul i32 %389, %393
  %395 = add i32 %386, %394
  %396 = getelementptr %dimension_descriptor, %dimension_descriptor* %390, i32 0, i32 3
  %397 = load i32, i32* %396, align 4
  %398 = mul i32 %389, %397
  %399 = getelementptr inbounds %dimension_descriptor, %dimension_descriptor* %380, i32 2
  %400 = getelementptr %dimension_descriptor, %dimension_descriptor* %399, i32 0, i32 1
  %401 = load i32, i32* %400, align 4
  %402 = sub i32 %378, %401
  %403 = mul i32 %398, %402
  %404 = add i32 %395, %403
  %405 = getelementptr %dimension_descriptor, %dimension_descriptor* %399, i32 0, i32 3
  %406 = load i32, i32* %405, align 4
  %407 = mul i32 %398, %406
  %408 = getelementptr %array, %array* %c, i32 0, i32 0
  %409 = load float*, float** %408, align 8
  %410 = getelementptr inbounds float, float* %409, i32 %404
  %411 = load float, float* %410, align 4
  %412 = fadd float %375, %411
  store float %412, float* %339, align 4
  %413 = load i32, i32* %"3_v", align 4
  %414 = add i32 %413, 1
  store i32 %414, i32* %"3_v", align 4
  br label %loop.head11

loop.end13:                                       ; preds = %loop.head11
  %415 = load i32, i32* %"2_v", align 4
  %416 = add i32 %415, 1
  store i32 %416, i32* %"2_v", align 4
  br label %loop.head9

loop.end14:                                       ; preds = %loop.head9
  %417 = load i32, i32* %"1_v", align 4
  %418 = add i32 %417, 1
  store i32 %418, i32* %"1_v", align 4
  br label %loop.head7

loop.end15:                                       ; preds = %loop.head7
  br label %return

return:                                           ; preds = %loop.end15
  ret void
}

define void @check(%array* %c) {
.entry:
  %i = alloca i32, align 4
  %j = alloca i32, align 4
  %k = alloca i32, align 4
  %0 = load %array, %array* %c, align 8
  %1 = getelementptr %array, %array* %c, i32 0, i32 2
  %2 = load %dimension_descriptor*, %dimension_descriptor** %1, align 8
  %3 = getelementptr inbounds %dimension_descriptor, %dimension_descriptor* %2, i32 0
  %4 = getelementptr %dimension_descriptor, %dimension_descriptor* %3, i32 0, i32 1
  %5 = load i32, i32* %4, align 4
  %6 = sub i32 %5, 1
  store i32 %6, i32* %i, align 4
  br label %loop.head

loop.head:                                        ; preds = %loop.end5, %.entry
  %7 = load i32, i32* %i, align 4
  %8 = add i32 %7, 1
  %9 = load %array, %array* %c, align 8
  %10 = getelementptr %array, %array* %c, i32 0, i32 2
  %11 = load %dimension_descriptor*, %dimension_descriptor** %10, align 8
  %12 = getelementptr inbounds %dimension_descriptor, %dimension_descriptor* %11, i32 0
  %13 = getelementptr %dimension_descriptor, %dimension_descriptor* %12, i32 0, i32 2
  %14 = load i32, i32* %13, align 4
  %15 = icmp sle i32 %8, %14
  br i1 %15, label %loop.body, label %loop.end6

loop.body:                                        ; preds = %loop.head
  %16 = load i32, i32* %i, align 4
  %17 = add i32 %16, 1
  store i32 %17, i32* %i, align 4
  %18 = load %array, %array* %c, align 8
  %19 = getelementptr %array, %array* %c, i32 0, i32 2
  %20 = load %dimension_descriptor*, %dimension_descriptor** %19, align 8
  %21 = getelementptr inbounds %dimension_descriptor, %dimension_descriptor* %20, i32 1
  %22 = getelementptr %dimension_descriptor, %dimension_descriptor* %21, i32 0, i32 1
  %23 = load i32, i32* %22, align 4
  %24 = sub i32 %23, 1
  store i32 %24, i32* %j, align 4
  br label %loop.head1

loop.head1:                                       ; preds = %loop.end, %loop.body
  %25 = load i32, i32* %j, align 4
  %26 = add i32 %25, 1
  %27 = load %array, %array* %c, align 8
  %28 = getelementptr %array, %array* %c, i32 0, i32 2
  %29 = load %dimension_descriptor*, %dimension_descriptor** %28, align 8
  %30 = getelementptr inbounds %dimension_descriptor, %dimension_descriptor* %29, i32 1
  %31 = getelementptr %dimension_descriptor, %dimension_descriptor* %30, i32 0, i32 2
  %32 = load i32, i32* %31, align 4
  %33 = icmp sle i32 %26, %32
  br i1 %33, label %loop.body2, label %loop.end5

loop.body2:                                       ; preds = %loop.head1
  %34 = load i32, i32* %j, align 4
  %35 = add i32 %34, 1
  store i32 %35, i32* %j, align 4
  %36 = load %array, %array* %c, align 8
  %37 = getelementptr %array, %array* %c, i32 0, i32 2
  %38 = load %dimension_descriptor*, %dimension_descriptor** %37, align 8
  %39 = getelementptr inbounds %dimension_descriptor, %dimension_descriptor* %38, i32 2
  %40 = getelementptr %dimension_descriptor, %dimension_descriptor* %39, i32 0, i32 1
  %41 = load i32, i32* %40, align 4
  %42 = sub i32 %41, 1
  store i32 %42, i32* %k, align 4
  br label %loop.head3

loop.head3:                                       ; preds = %ifcont, %loop.body2
  %43 = load i32, i32* %k, align 4
  %44 = add i32 %43, 1
  %45 = load %array, %array* %c, align 8
  %46 = getelementptr %array, %array* %c, i32 0, i32 2
  %47 = load %dimension_descriptor*, %dimension_descriptor** %46, align 8
  %48 = getelementptr inbounds %dimension_descriptor, %dimension_descriptor* %47, i32 2
  %49 = getelementptr %dimension_descriptor, %dimension_descriptor* %48, i32 0, i32 2
  %50 = load i32, i32* %49, align 4
  %51 = icmp sle i32 %44, %50
  br i1 %51, label %loop.body4, label %loop.end

loop.body4:                                       ; preds = %loop.head3
  %52 = load i32, i32* %k, align 4
  %53 = add i32 %52, 1
  store i32 %53, i32* %k, align 4
  %54 = load i32, i32* %i, align 4
  %55 = load i32, i32* %j, align 4
  %56 = load i32, i32* %k, align 4
  %57 = getelementptr %array, %array* %c, i32 0, i32 2
  %58 = load %dimension_descriptor*, %dimension_descriptor** %57, align 8
  %59 = getelementptr inbounds %dimension_descriptor, %dimension_descriptor* %58, i32 0
  %60 = getelementptr %dimension_descriptor, %dimension_descriptor* %59, i32 0, i32 1
  %61 = load i32, i32* %60, align 4
  %62 = sub i32 %54, %61
  %63 = mul i32 1, %62
  %64 = add i32 0, %63
  %65 = getelementptr %dimension_descriptor, %dimension_descriptor* %59, i32 0, i32 3
  %66 = load i32, i32* %65, align 4
  %67 = mul i32 1, %66
  %68 = getelementptr inbounds %dimension_descriptor, %dimension_descriptor* %58, i32 1
  %69 = getelementptr %dimension_descriptor, %dimension_descriptor* %68, i32 0, i32 1
  %70 = load i32, i32* %69, align 4
  %71 = sub i32 %55, %70
  %72 = mul i32 %67, %71
  %73 = add i32 %64, %72
  %74 = getelementptr %dimension_descriptor, %dimension_descriptor* %68, i32 0, i32 3
  %75 = load i32, i32* %74, align 4
  %76 = mul i32 %67, %75
  %77 = getelementptr inbounds %dimension_descriptor, %dimension_descriptor* %58, i32 2
  %78 = getelementptr %dimension_descriptor, %dimension_descriptor* %77, i32 0, i32 1
  %79 = load i32, i32* %78, align 4
  %80 = sub i32 %56, %79
  %81 = mul i32 %76, %80
  %82 = add i32 %73, %81
  %83 = getelementptr %dimension_descriptor, %dimension_descriptor* %77, i32 0, i32 3
  %84 = load i32, i32* %83, align 4
  %85 = mul i32 %76, %84
  %86 = getelementptr %array, %array* %c, i32 0, i32 0
  %87 = load float*, float** %86, align 8
  %88 = getelementptr inbounds float, float* %87, i32 %82
  %89 = load float, float* %88, align 4
  %90 = load i32, i32* %i, align 4
  %91 = load i32, i32* %j, align 4
  %92 = add i32 %90, %91
  %93 = load i32, i32* %k, align 4
  %94 = add i32 %92, %93
  %95 = sitofp i32 %94 to float
  %96 = call float @llvm.pow.f32(float %95, float 2.000000e+00)
  %97 = fptosi float %96 to i32
  %98 = sitofp i32 %97 to float
  %99 = fcmp une float %89, %98
  br i1 %99, label %then, label %else

then:                                             ; preds = %loop.body4
  call void (i8*, ...) @_lfortran_printf(i8* getelementptr inbounds ([12 x i8], [12 x i8]* @0, i32 0, i32 0))
  call void @exit(i32 1)
  br label %ifcont

else:                                             ; preds = %loop.body4
  br label %ifcont

ifcont:                                           ; preds = %else, %then
  br label %loop.head3

loop.end:                                         ; preds = %loop.head3
  br label %loop.head1

loop.end5:                                        ; preds = %loop.head1
  br label %loop.head

loop.end6:                                        ; preds = %loop.head
  br label %return

return:                                           ; preds = %loop.end6
  ret void
}

; Function Attrs: nounwind readnone speculatable willreturn
declare float @llvm.pow.f32(float, float) #0

declare void @_lfortran_printf(i8*, ...)

declare void @exit(i32)

define i32 @main() {
.entry:
  %a = alloca %array, align 8
  %0 = getelementptr %array, %array* %a, i32 0, i32 1
  store i32 0, i32* %0, align 4
  %1 = getelementptr %array, %array* %a, i32 0, i32 2
  %2 = alloca i32, align 4
  store i32 3, i32* %2, align 4
  %3 = load i32, i32* %2, align 4
  %4 = alloca %dimension_descriptor, i32 %3, align 8
  %5 = getelementptr %array, %array* %a, i32 0, i32 4
  store i32 3, i32* %5, align 4
  store %dimension_descriptor* %4, %dimension_descriptor** %1, align 8
  %6 = load %dimension_descriptor*, %dimension_descriptor** %1, align 8
  %7 = getelementptr inbounds %dimension_descriptor, %dimension_descriptor* %6, i32 0
  %8 = getelementptr %dimension_descriptor, %dimension_descriptor* %7, i32 0, i32 0
  %9 = getelementptr %dimension_descriptor, %dimension_descriptor* %7, i32 0, i32 1
  %10 = getelementptr %dimension_descriptor, %dimension_descriptor* %7, i32 0, i32 2
  %11 = getelementptr %dimension_descriptor, %dimension_descriptor* %7, i32 0, i32 3
  store i32 1, i32* %8, align 4
  store i32 1, i32* %9, align 4
  store i32 2, i32* %10, align 4
  %12 = load i32, i32* %10, align 4
  %13 = load i32, i32* %9, align 4
  %14 = sub i32 %12, %13
  %15 = add i32 %14, 1
  store i32 %15, i32* %11, align 4
  %16 = getelementptr inbounds %dimension_descriptor, %dimension_descriptor* %6, i32 1
  %17 = getelementptr %dimension_descriptor, %dimension_descriptor* %16, i32 0, i32 0
  %18 = getelementptr %dimension_descriptor, %dimension_descriptor* %16, i32 0, i32 1
  %19 = getelementptr %dimension_descriptor, %dimension_descriptor* %16, i32 0, i32 2
  %20 = getelementptr %dimension_descriptor, %dimension_descriptor* %16, i32 0, i32 3
  store i32 1, i32* %17, align 4
  store i32 1, i32* %18, align 4
  store i32 2, i32* %19, align 4
  %21 = load i32, i32* %19, align 4
  %22 = load i32, i32* %18, align 4
  %23 = sub i32 %21, %22
  %24 = add i32 %23, 1
  store i32 %24, i32* %20, align 4
  %25 = getelementptr inbounds %dimension_descriptor, %dimension_descriptor* %6, i32 2
  %26 = getelementptr %dimension_descriptor, %dimension_descriptor* %25, i32 0, i32 0
  %27 = getelementptr %dimension_descriptor, %dimension_descriptor* %25, i32 0, i32 1
  %28 = getelementptr %dimension_descriptor, %dimension_descriptor* %25, i32 0, i32 2
  %29 = getelementptr %dimension_descriptor, %dimension_descriptor* %25, i32 0, i32 3
  store i32 1, i32* %26, align 4
  store i32 1, i32* %27, align 4
  store i32 2, i32* %28, align 4
  %30 = load i32, i32* %28, align 4
  %31 = load i32, i32* %27, align 4
  %32 = sub i32 %30, %31
  %33 = add i32 %32, 1
  store i32 %33, i32* %29, align 4
  %34 = alloca i32, align 4
  store i32 8, i32* %34, align 4
  %35 = getelementptr %array, %array* %a, i32 0, i32 0
  %36 = load i32, i32* %34, align 4
  %37 = alloca float, i32 %36, align 4
  store float* %37, float** %35, align 8
  %b = alloca %array, align 8
  %38 = getelementptr %array, %array* %b, i32 0, i32 1
  store i32 0, i32* %38, align 4
  %39 = getelementptr %array, %array* %b, i32 0, i32 2
  %40 = alloca i32, align 4
  store i32 3, i32* %40, align 4
  %41 = load i32, i32* %40, align 4
  %42 = alloca %dimension_descriptor, i32 %41, align 8
  %43 = getelementptr %array, %array* %b, i32 0, i32 4
  store i32 3, i32* %43, align 4
  store %dimension_descriptor* %42, %dimension_descriptor** %39, align 8
  %44 = load %dimension_descriptor*, %dimension_descriptor** %39, align 8
  %45 = getelementptr inbounds %dimension_descriptor, %dimension_descriptor* %44, i32 0
  %46 = getelementptr %dimension_descriptor, %dimension_descriptor* %45, i32 0, i32 0
  %47 = getelementptr %dimension_descriptor, %dimension_descriptor* %45, i32 0, i32 1
  %48 = getelementptr %dimension_descriptor, %dimension_descriptor* %45, i32 0, i32 2
  %49 = getelementptr %dimension_descriptor, %dimension_descriptor* %45, i32 0, i32 3
  store i32 1, i32* %46, align 4
  store i32 1, i32* %47, align 4
  store i32 2, i32* %48, align 4
  %50 = load i32, i32* %48, align 4
  %51 = load i32, i32* %47, align 4
  %52 = sub i32 %50, %51
  %53 = add i32 %52, 1
  store i32 %53, i32* %49, align 4
  %54 = getelementptr inbounds %dimension_descriptor, %dimension_descriptor* %44, i32 1
  %55 = getelementptr %dimension_descriptor, %dimension_descriptor* %54, i32 0, i32 0
  %56 = getelementptr %dimension_descriptor, %dimension_descriptor* %54, i32 0, i32 1
  %57 = getelementptr %dimension_descriptor, %dimension_descriptor* %54, i32 0, i32 2
  %58 = getelementptr %dimension_descriptor, %dimension_descriptor* %54, i32 0, i32 3
  store i32 1, i32* %55, align 4
  store i32 1, i32* %56, align 4
  store i32 2, i32* %57, align 4
  %59 = load i32, i32* %57, align 4
  %60 = load i32, i32* %56, align 4
  %61 = sub i32 %59, %60
  %62 = add i32 %61, 1
  store i32 %62, i32* %58, align 4
  %63 = getelementptr inbounds %dimension_descriptor, %dimension_descriptor* %44, i32 2
  %64 = getelementptr %dimension_descriptor, %dimension_descriptor* %63, i32 0, i32 0
  %65 = getelementptr %dimension_descriptor, %dimension_descriptor* %63, i32 0, i32 1
  %66 = getelementptr %dimension_descriptor, %dimension_descriptor* %63, i32 0, i32 2
  %67 = getelementptr %dimension_descriptor, %dimension_descriptor* %63, i32 0, i32 3
  store i32 1, i32* %64, align 4
  store i32 1, i32* %65, align 4
  store i32 2, i32* %66, align 4
  %68 = load i32, i32* %66, align 4
  %69 = load i32, i32* %65, align 4
  %70 = sub i32 %68, %69
  %71 = add i32 %70, 1
  store i32 %71, i32* %67, align 4
  %72 = alloca i32, align 4
  store i32 8, i32* %72, align 4
  %73 = getelementptr %array, %array* %b, i32 0, i32 0
  %74 = load i32, i32* %72, align 4
  %75 = alloca float, i32 %74, align 4
  store float* %75, float** %73, align 8
  %c = alloca %array, align 8
  %76 = getelementptr %array, %array* %c, i32 0, i32 1
  store i32 0, i32* %76, align 4
  %77 = getelementptr %array, %array* %c, i32 0, i32 2
  %78 = alloca i32, align 4
  store i32 3, i32* %78, align 4
  %79 = load i32, i32* %78, align 4
  %80 = alloca %dimension_descriptor, i32 %79, align 8
  %81 = getelementptr %array, %array* %c, i32 0, i32 4
  store i32 3, i32* %81, align 4
  store %dimension_descriptor* %80, %dimension_descriptor** %77, align 8
  %82 = load %dimension_descriptor*, %dimension_descriptor** %77, align 8
  %83 = getelementptr inbounds %dimension_descriptor, %dimension_descriptor* %82, i32 0
  %84 = getelementptr %dimension_descriptor, %dimension_descriptor* %83, i32 0, i32 0
  %85 = getelementptr %dimension_descriptor, %dimension_descriptor* %83, i32 0, i32 1
  %86 = getelementptr %dimension_descriptor, %dimension_descriptor* %83, i32 0, i32 2
  %87 = getelementptr %dimension_descriptor, %dimension_descriptor* %83, i32 0, i32 3
  store i32 1, i32* %84, align 4
  store i32 1, i32* %85, align 4
  store i32 2, i32* %86, align 4
  %88 = load i32, i32* %86, align 4
  %89 = load i32, i32* %85, align 4
  %90 = sub i32 %88, %89
  %91 = add i32 %90, 1
  store i32 %91, i32* %87, align 4
  %92 = getelementptr inbounds %dimension_descriptor, %dimension_descriptor* %82, i32 1
  %93 = getelementptr %dimension_descriptor, %dimension_descriptor* %92, i32 0, i32 0
  %94 = getelementptr %dimension_descriptor, %dimension_descriptor* %92, i32 0, i32 1
  %95 = getelementptr %dimension_descriptor, %dimension_descriptor* %92, i32 0, i32 2
  %96 = getelementptr %dimension_descriptor, %dimension_descriptor* %92, i32 0, i32 3
  store i32 1, i32* %93, align 4
  store i32 1, i32* %94, align 4
  store i32 2, i32* %95, align 4
  %97 = load i32, i32* %95, align 4
  %98 = load i32, i32* %94, align 4
  %99 = sub i32 %97, %98
  %100 = add i32 %99, 1
  store i32 %100, i32* %96, align 4
  %101 = getelementptr inbounds %dimension_descriptor, %dimension_descriptor* %82, i32 2
  %102 = getelementptr %dimension_descriptor, %dimension_descriptor* %101, i32 0, i32 0
  %103 = getelementptr %dimension_descriptor, %dimension_descriptor* %101, i32 0, i32 1
  %104 = getelementptr %dimension_descriptor, %dimension_descriptor* %101, i32 0, i32 2
  %105 = getelementptr %dimension_descriptor, %dimension_descriptor* %101, i32 0, i32 3
  store i32 1, i32* %102, align 4
  store i32 1, i32* %103, align 4
  store i32 2, i32* %104, align 4
  %106 = load i32, i32* %104, align 4
  %107 = load i32, i32* %103, align 4
  %108 = sub i32 %106, %107
  %109 = add i32 %108, 1
  store i32 %109, i32* %105, align 4
  %110 = alloca i32, align 4
  store i32 8, i32* %110, align 4
  %111 = getelementptr %array, %array* %c, i32 0, i32 0
  %112 = load i32, i32* %110, align 4
  %113 = alloca float, i32 %112, align 4
  store float* %113, float** %111, align 8
  %d = alloca %array, align 8
  %114 = getelementptr %array, %array* %d, i32 0, i32 1
  store i32 0, i32* %114, align 4
  %115 = getelementptr %array, %array* %d, i32 0, i32 2
  %116 = alloca i32, align 4
  store i32 3, i32* %116, align 4
  %117 = load i32, i32* %116, align 4
  %118 = alloca %dimension_descriptor, i32 %117, align 8
  %119 = getelementptr %array, %array* %d, i32 0, i32 4
  store i32 3, i32* %119, align 4
  store %dimension_descriptor* %118, %dimension_descriptor** %115, align 8
  %120 = load %dimension_descriptor*, %dimension_descriptor** %115, align 8
  %121 = getelementptr inbounds %dimension_descriptor, %dimension_descriptor* %120, i32 0
  %122 = getelementptr %dimension_descriptor, %dimension_descriptor* %121, i32 0, i32 0
  %123 = getelementptr %dimension_descriptor, %dimension_descriptor* %121, i32 0, i32 1
  %124 = getelementptr %dimension_descriptor, %dimension_descriptor* %121, i32 0, i32 2
  %125 = getelementptr %dimension_descriptor, %dimension_descriptor* %121, i32 0, i32 3
  store i32 1, i32* %122, align 4
  store i32 1, i32* %123, align 4
  store i32 2, i32* %124, align 4
  %126 = load i32, i32* %124, align 4
  %127 = load i32, i32* %123, align 4
  %128 = sub i32 %126, %127
  %129 = add i32 %128, 1
  store i32 %129, i32* %125, align 4
  %130 = getelementptr inbounds %dimension_descriptor, %dimension_descriptor* %120, i32 1
  %131 = getelementptr %dimension_descriptor, %dimension_descriptor* %130, i32 0, i32 0
  %132 = getelementptr %dimension_descriptor, %dimension_descriptor* %130, i32 0, i32 1
  %133 = getelementptr %dimension_descriptor, %dimension_descriptor* %130, i32 0, i32 2
  %134 = getelementptr %dimension_descriptor, %dimension_descriptor* %130, i32 0, i32 3
  store i32 1, i32* %131, align 4
  store i32 1, i32* %132, align 4
  store i32 2, i32* %133, align 4
  %135 = load i32, i32* %133, align 4
  %136 = load i32, i32* %132, align 4
  %137 = sub i32 %135, %136
  %138 = add i32 %137, 1
  store i32 %138, i32* %134, align 4
  %139 = getelementptr inbounds %dimension_descriptor, %dimension_descriptor* %120, i32 2
  %140 = getelementptr %dimension_descriptor, %dimension_descriptor* %139, i32 0, i32 0
  %141 = getelementptr %dimension_descriptor, %dimension_descriptor* %139, i32 0, i32 1
  %142 = getelementptr %dimension_descriptor, %dimension_descriptor* %139, i32 0, i32 2
  %143 = getelementptr %dimension_descriptor, %dimension_descriptor* %139, i32 0, i32 3
  store i32 1, i32* %140, align 4
  store i32 1, i32* %141, align 4
  store i32 2, i32* %142, align 4
  %144 = load i32, i32* %142, align 4
  %145 = load i32, i32* %141, align 4
  %146 = sub i32 %144, %145
  %147 = add i32 %146, 1
  store i32 %147, i32* %143, align 4
  %148 = alloca i32, align 4
  store i32 8, i32* %148, align 4
  %149 = getelementptr %array, %array* %d, i32 0, i32 0
  %150 = load i32, i32* %148, align 4
  %151 = alloca float, i32 %150, align 4
  store float* %151, float** %149, align 8
  %i = alloca i32, align 4
  %j = alloca i32, align 4
  %k = alloca i32, align 4
  store i32 0, i32* %i, align 4
  br label %loop.head

loop.head:                                        ; preds = %loop.end5, %.entry
  %152 = load i32, i32* %i, align 4
  %153 = add i32 %152, 1
  %154 = icmp sle i32 %153, 2
  br i1 %154, label %loop.body, label %loop.end6

loop.body:                                        ; preds = %loop.head
  %155 = load i32, i32* %i, align 4
  %156 = add i32 %155, 1
  store i32 %156, i32* %i, align 4
  store i32 0, i32* %j, align 4
  br label %loop.head1

loop.head1:                                       ; preds = %loop.end, %loop.body
  %157 = load i32, i32* %j, align 4
  %158 = add i32 %157, 1
  %159 = icmp sle i32 %158, 2
  br i1 %159, label %loop.body2, label %loop.end5

loop.body2:                                       ; preds = %loop.head1
  %160 = load i32, i32* %j, align 4
  %161 = add i32 %160, 1
  store i32 %161, i32* %j, align 4
  store i32 0, i32* %k, align 4
  br label %loop.head3

loop.head3:                                       ; preds = %loop.body4, %loop.body2
  %162 = load i32, i32* %k, align 4
  %163 = add i32 %162, 1
  %164 = icmp sle i32 %163, 2
  br i1 %164, label %loop.body4, label %loop.end

loop.body4:                                       ; preds = %loop.head3
  %165 = load i32, i32* %k, align 4
  %166 = add i32 %165, 1
  store i32 %166, i32* %k, align 4
  %167 = load i32, i32* %i, align 4
  %168 = load i32, i32* %j, align 4
  %169 = load i32, i32* %k, align 4
  %170 = getelementptr %array, %array* %a, i32 0, i32 2
  %171 = load %dimension_descriptor*, %dimension_descriptor** %170, align 8
  %172 = getelementptr inbounds %dimension_descriptor, %dimension_descriptor* %171, i32 0
  %173 = getelementptr %dimension_descriptor, %dimension_descriptor* %172, i32 0, i32 1
  %174 = load i32, i32* %173, align 4
  %175 = sub i32 %167, %174
  %176 = mul i32 1, %175
  %177 = add i32 0, %176
  %178 = getelementptr %dimension_descriptor, %dimension_descriptor* %172, i32 0, i32 3
  %179 = load i32, i32* %178, align 4
  %180 = mul i32 1, %179
  %181 = getelementptr inbounds %dimension_descriptor, %dimension_descriptor* %171, i32 1
  %182 = getelementptr %dimension_descriptor, %dimension_descriptor* %181, i32 0, i32 1
  %183 = load i32, i32* %182, align 4
  %184 = sub i32 %168, %183
  %185 = mul i32 %180, %184
  %186 = add i32 %177, %185
  %187 = getelementptr %dimension_descriptor, %dimension_descriptor* %181, i32 0, i32 3
  %188 = load i32, i32* %187, align 4
  %189 = mul i32 %180, %188
  %190 = getelementptr inbounds %dimension_descriptor, %dimension_descriptor* %171, i32 2
  %191 = getelementptr %dimension_descriptor, %dimension_descriptor* %190, i32 0, i32 1
  %192 = load i32, i32* %191, align 4
  %193 = sub i32 %169, %192
  %194 = mul i32 %189, %193
  %195 = add i32 %186, %194
  %196 = getelementptr %dimension_descriptor, %dimension_descriptor* %190, i32 0, i32 3
  %197 = load i32, i32* %196, align 4
  %198 = mul i32 %189, %197
  %199 = getelementptr %array, %array* %a, i32 0, i32 0
  %200 = load float*, float** %199, align 8
  %201 = getelementptr inbounds float, float* %200, i32 %195
  %202 = load i32, i32* %i, align 4
  %203 = load i32, i32* %i, align 4
  %204 = mul i32 %202, %203
  %205 = load i32, i32* %j, align 4
  %206 = load i32, i32* %j, align 4
  %207 = mul i32 %205, %206
  %208 = add i32 %204, %207
  %209 = load i32, i32* %k, align 4
  %210 = load i32, i32* %k, align 4
  %211 = mul i32 %209, %210
  %212 = add i32 %208, %211
  %213 = sitofp i32 %212 to float
  store float %213, float* %201, align 4
  %214 = load i32, i32* %i, align 4
  %215 = load i32, i32* %j, align 4
  %216 = load i32, i32* %k, align 4
  %217 = getelementptr %array, %array* %b, i32 0, i32 2
  %218 = load %dimension_descriptor*, %dimension_descriptor** %217, align 8
  %219 = getelementptr inbounds %dimension_descriptor, %dimension_descriptor* %218, i32 0
  %220 = getelementptr %dimension_descriptor, %dimension_descriptor* %219, i32 0, i32 1
  %221 = load i32, i32* %220, align 4
  %222 = sub i32 %214, %221
  %223 = mul i32 1, %222
  %224 = add i32 0, %223
  %225 = getelementptr %dimension_descriptor, %dimension_descriptor* %219, i32 0, i32 3
  %226 = load i32, i32* %225, align 4
  %227 = mul i32 1, %226
  %228 = getelementptr inbounds %dimension_descriptor, %dimension_descriptor* %218, i32 1
  %229 = getelementptr %dimension_descriptor, %dimension_descriptor* %228, i32 0, i32 1
  %230 = load i32, i32* %229, align 4
  %231 = sub i32 %215, %230
  %232 = mul i32 %227, %231
  %233 = add i32 %224, %232
  %234 = getelementptr %dimension_descriptor, %dimension_descriptor* %228, i32 0, i32 3
  %235 = load i32, i32* %234, align 4
  %236 = mul i32 %227, %235
  %237 = getelementptr inbounds %dimension_descriptor, %dimension_descriptor* %218, i32 2
  %238 = getelementptr %dimension_descriptor, %dimension_descriptor* %237, i32 0, i32 1
  %239 = load i32, i32* %238, align 4
  %240 = sub i32 %216, %239
  %241 = mul i32 %236, %240
  %242 = add i32 %233, %241
  %243 = getelementptr %dimension_descriptor, %dimension_descriptor* %237, i32 0, i32 3
  %244 = load i32, i32* %243, align 4
  %245 = mul i32 %236, %244
  %246 = getelementptr %array, %array* %b, i32 0, i32 0
  %247 = load float*, float** %246, align 8
  %248 = getelementptr inbounds float, float* %247, i32 %242
  %249 = load i32, i32* %i, align 4
  %250 = load i32, i32* %j, align 4
  %251 = mul i32 %249, %250
  %252 = load i32, i32* %j, align 4
  %253 = load i32, i32* %k, align 4
  %254 = mul i32 %252, %253
  %255 = add i32 %251, %254
  %256 = load i32, i32* %i, align 4
  %257 = load i32, i32* %k, align 4
  %258 = mul i32 %256, %257
  %259 = add i32 %255, %258
  %260 = mul i32 2, %259
  %261 = sitofp i32 %260 to float
  store float %261, float* %248, align 4
  %262 = load i32, i32* %i, align 4
  %263 = load i32, i32* %j, align 4
  %264 = load i32, i32* %k, align 4
  %265 = getelementptr %array, %array* %c, i32 0, i32 2
  %266 = load %dimension_descriptor*, %dimension_descriptor** %265, align 8
  %267 = getelementptr inbounds %dimension_descriptor, %dimension_descriptor* %266, i32 0
  %268 = getelementptr %dimension_descriptor, %dimension_descriptor* %267, i32 0, i32 1
  %269 = load i32, i32* %268, align 4
  %270 = sub i32 %262, %269
  %271 = mul i32 1, %270
  %272 = add i32 0, %271
  %273 = getelementptr %dimension_descriptor, %dimension_descriptor* %267, i32 0, i32 3
  %274 = load i32, i32* %273, align 4
  %275 = mul i32 1, %274
  %276 = getelementptr inbounds %dimension_descriptor, %dimension_descriptor* %266, i32 1
  %277 = getelementptr %dimension_descriptor, %dimension_descriptor* %276, i32 0, i32 1
  %278 = load i32, i32* %277, align 4
  %279 = sub i32 %263, %278
  %280 = mul i32 %275, %279
  %281 = add i32 %272, %280
  %282 = getelementptr %dimension_descriptor, %dimension_descriptor* %276, i32 0, i32 3
  %283 = load i32, i32* %282, align 4
  %284 = mul i32 %275, %283
  %285 = getelementptr inbounds %dimension_descriptor, %dimension_descriptor* %266, i32 2
  %286 = getelementptr %dimension_descriptor, %dimension_descriptor* %285, i32 0, i32 1
  %287 = load i32, i32* %286, align 4
  %288 = sub i32 %264, %287
  %289 = mul i32 %284, %288
  %290 = add i32 %281, %289
  %291 = getelementptr %dimension_descriptor, %dimension_descriptor* %285, i32 0, i32 3
  %292 = load i32, i32* %291, align 4
  %293 = mul i32 %284, %292
  %294 = getelementptr %array, %array* %c, i32 0, i32 0
  %295 = load float*, float** %294, align 8
  %296 = getelementptr inbounds float, float* %295, i32 %290
  store float 0.000000e+00, float* %296, align 4
  br label %loop.head3

loop.end:                                         ; preds = %loop.head3
  br label %loop.head1

loop.end5:                                        ; preds = %loop.head1
  br label %loop.head

loop.end6:                                        ; preds = %loop.head
  %297 = alloca %array, align 8
  %298 = alloca %array, align 8
  %299 = alloca %array, align 8
  %300 = alloca %array, align 8
  call void @asquare(%array* %a, %array* %b, %array* %c, %array* %d)
  %301 = alloca %array, align 8
  call void @check(%array* %d)
  ret i32 0
}

attributes #0 = { nounwind readnone speculatable willreturn }
