{
    "basename": "pass_dead_code_removal-case_06-e7f007f",
    "cmd": "lfortran --pass=dead_code_removal --show-asr --no-color {infile} -o {outfile}",
    "infile": "tests/../integration_tests/case_06.f90",
    "infile_hash": "3987983e4c8d162530bceffbbce0bd7d038b1f794655c222c47ad714",
    "outfile": null,
    "outfile_hash": null,
    "stdout": "pass_dead_code_removal-case_06-e7f007f.stdout",
    "stdout_hash": "7e88430b8d43cfb47ba328a7c89fd8567befdf007071cef6e3a8f856",
    "stderr": null,
    "stderr_hash": null,
    "returncode": 0
}